{
	"info": {
		"_postman_id": "fd2c88e0-13a7-4c05-90d0-91869595603f",
		"name": "Swagger Petstore",
		"description": "This is a sample server Petstore server.  You can find out more about Swagger at [http://swagger.io](http://swagger.io) or on [irc.freenode.net, #swagger](http://swagger.io/irc/).  For this sample, you can use the api key `special-key` to test the authorization filters.\n\nContact Support:\n Email: apiteam@swagger.io",
		"schema": "https://schema.getpostman.com/json/collection/v2.1.0/collection.json"
	},
	"item": [
		{
			"name": "Create user",
			"event": [
				{
					"listen": "prerequest",
					"script": {
						"exec": [
							"pm.collectionVariables.set(\"id\", pm.variables.replaceIn('{{$randomInt}}'));\r",
							"pm.collectionVariables.set(\"UserName\", pm.variables.replaceIn('{{$randomUserName}}'));\r",
							"pm.collectionVariables.set(\"FirstName\", pm.variables.replaceIn('{{$randomFirstName}}'));\r",
							"pm.collectionVariables.set(\"LastName\", pm.variables.replaceIn('{{$randomLastName}}'));\r",
							"pm.collectionVariables.set(\"email\", pm.variables.replaceIn('{{$randomEmail}}'));\r",
							"pm.collectionVariables.set(\"phone\", pm.variables.replaceIn('{{$randomPhoneNumber}}'));\r",
							"pm.collectionVariables.set(\"password\", pm.variables.replaceIn('{{$randomPassword}}'));\r",
							"\r",
							"\r",
							"console.log(pm.collectionVariables.get('UserName'));\r",
							"console.log(pm.collectionVariables.get('id'));\r",
							"console.log(pm.collectionVariables.get('FirstName'));\r",
							"console.log(pm.collectionVariables.get('LastName'));"
						],
						"type": "text/javascript"
					}
				},
				{
					"listen": "test",
					"script": {
						"exec": [
							"\r",
							"pm.test(\"Successful POST request-status code is 200\", function () {\r",
							"    pm.expect(pm.response.code).to.be.oneOf([200]);\r",
							"});\r",
							"\r",
							"pm.test(\"Status code name has string 'OK'\", function () {\r",
							"    pm.response.to.have.status(\"OK\");\r",
							"});\r",
							"\r",
							"pm.test(\"Response time is less than 200ms\", function () {\r",
							"    pm.expect(pm.response.responseTime).to.be.below(200);\r",
							"});\r",
							"\r",
							""
						],
						"type": "text/javascript"
					}
				}
			],
			"request": {
				"method": "POST",
				"header": [
					{
						"key": "Content-Type",
						"value": "application/json"
					}
				],
				"body": {
					"mode": "raw",
					"raw": "{\n    \"id\": {{id}},\n    \"username\": \"{{UserName}}\",\n    \"firstName\": \"{{FirstName}}\",\n    \"lastName\": \"{{LastName}}\",\n    \"email\": \"{{email}}\",\n    \"password\": \"{{$randomPhoneNumber}}\",\n    \"phone\": \"nisi veniam qui elit in\",\n    \"userStatus\": -6705011\n}",
					"options": {
						"raw": {
							"language": "json"
						}
					}
				},
				"url": {
					"raw": "{{baseUrl}}/user",
					"host": [
						"{{baseUrl}}"
					],
					"path": [
						"user"
					]
				},
				"description": "This can only be done by the logged in user."
			},
			"response": [
				{
					"name": "successful operation",
					"originalRequest": {
						"method": "POST",
						"header": [],
						"body": {
							"mode": "raw",
							"raw": "{\n    \"id\": 19426976,\n    \"username\": \"ad consequat Duis sed \",\n    \"firstName\": \"cillum\",\n    \"lastName\": \"est fugiat\",\n    \"email\": \"non sit\",\n    \"password\": \"dolor laboris Duis\",\n    \"phone\": \"nisi veniam qui elit in\",\n    \"userStatus\": -6705011\n}",
							"options": {
								"raw": {
									"language": "json"
								}
							}
						},
						"url": {
							"raw": "{{baseUrl}}/user",
							"host": [
								"{{baseUrl}}"
							],
							"path": [
								"user"
							]
						}
					},
					"status": "Internal Server Error",
					"code": 500,
					"_postman_previewlanguage": "text",
					"header": [
						{
							"key": "Content-Type",
							"value": "text/plain"
						}
					],
					"cookie": [],
					"body": ""
				}
			]
		},
		{
			"name": "Get user by user name",
			"event": [
				{
					"listen": "prerequest",
					"script": {
						"exec": [
							"setTimeout(function(){}, 10000);"
						],
						"type": "text/javascript"
					}
				},
				{
					"listen": "test",
					"script": {
						"exec": [
							"pm.test(\"Successful GET request-status code is 200\", function () {\r",
							"    pm.expect(pm.response.code).to.be.oneOf([200]);\r",
							"});\r",
							"\r",
							"pm.test(\"Status code name has string-'OK'\", function () {\r",
							"    pm.response.to.have.status(\"OK\");\r",
							"});\r",
							"\r",
							"pm.test(\"Response time is less than 200ms\", function () {\r",
							"    pm.expect(pm.response.responseTime).to.be.below(200);\r",
							"});\r",
							"\r",
							"if (responseCode.code === 200){\r",
							"var jsonData = JSON.parse(responseBody);\r",
							"\r",
							"    if (pm.collectionVariables.get('FirstName') !== null){\r",
							"        pm.test(\"Body has First Name\", function () {\r",
							"            responseBody.has(pm.collectionVariables.get('FirstName'));\r",
							"        });\r",
							"    }\r",
							"    if (pm.collectionVariables.get('LastName') !== null){\r",
							"        pm.test(\"Body has Last Name\", function () {\r",
							"            responseBody.has(pm.collectionVariables.get('LastName'));\r",
							"        });\r",
							"    }\r",
							"console.log(responseBody);\r",
							"}"
						],
						"type": "text/javascript"
					}
				}
			],
			"request": {
				"method": "GET",
				"header": [],
				"url": {
					"raw": "{{baseUrl}}/user/{{UserName}}",
					"host": [
						"{{baseUrl}}"
					],
					"path": [
						"user",
						"{{UserName}}"
					]
				}
			},
			"response": [
				{
					"name": "successful operation",
					"originalRequest": {
						"method": "GET",
						"header": [],
						"url": {
							"raw": "{{baseUrl}}/user/:username",
							"host": [
								"{{baseUrl}}"
							],
							"path": [
								"user",
								":username"
							],
							"variable": [
								{
									"key": "username",
									"value": "Excepteur nostrud dolor cupidatat dolor",
									"description": "(Required) The name that needs to be fetched. Use user1 for testing. "
								}
							]
						}
					},
					"status": "OK",
					"code": 200,
					"_postman_previewlanguage": "json",
					"header": [
						{
							"key": "Content-Type",
							"value": "application/json"
						}
					],
					"cookie": [],
					"body": "{\n \"id\": -59783632,\n \"username\": \"irure elit mollit eu ut\",\n \"firstName\": \"ullamco do Lorem null\",\n \"lastName\": \"qui\",\n \"email\": \"enim sunt officia Duis\",\n \"password\": \"in\",\n \"phone\": \"quis dolor amet consectetur consequat\",\n \"userStatus\": -25555398\n}"
				},
				{
					"name": "Invalid username supplied",
					"originalRequest": {
						"method": "GET",
						"header": [],
						"url": {
							"raw": "{{baseUrl}}/user/:username",
							"host": [
								"{{baseUrl}}"
							],
							"path": [
								"user",
								":username"
							],
							"variable": [
								{
									"key": "username",
									"value": "Excepteur nostrud dolor cupidatat dolor",
									"description": "(Required) The name that needs to be fetched. Use user1 for testing. "
								}
							]
						}
					},
					"status": "Bad Request",
					"code": 400,
					"_postman_previewlanguage": "text",
					"header": [
						{
							"key": "Content-Type",
							"value": "text/plain"
						}
					],
					"cookie": [],
					"body": ""
				},
				{
					"name": "User not found",
					"originalRequest": {
						"method": "GET",
						"header": [],
						"url": {
							"raw": "{{baseUrl}}/user/:username",
							"host": [
								"{{baseUrl}}"
							],
							"path": [
								"user",
								":username"
							],
							"variable": [
								{
									"key": "username",
									"value": "Excepteur nostrud dolor cupidatat dolor",
									"description": "(Required) The name that needs to be fetched. Use user1 for testing. "
								}
							]
						}
					},
					"status": "Not Found",
					"code": 404,
					"_postman_previewlanguage": "text",
					"header": [
						{
							"key": "Content-Type",
							"value": "text/plain"
						}
					],
					"cookie": [],
					"body": ""
				}
			]
		},
		{
			"name": "Updated user",
			"event": [
				{
					"listen": "test",
					"script": {
						"exec": [
							"pm.test(\"Successful PUT request-status code is 200\", function () {\r",
							"    pm.expect(pm.response.code).to.be.oneOf([200]);\r",
							"});\r",
							"pm.test(\"Status code name has string-'OK'\", function () {\r",
							"    pm.response.to.have.status(\"OK\");\r",
							"});\r",
							"pm.test(\"Response time is less than 200ms\", function () {\r",
							"    pm.expect(pm.response.responseTime).to.be.below(200);\r",
							"});"
						],
						"type": "text/javascript"
					}
				},
				{
					"listen": "prerequest",
					"script": {
						"exec": [
							"pm.collectionVariables.set(\"FirstName_new\", pm.variables.replaceIn('{{$randomFirstName}}'));\r",
							"pm.collectionVariables.set(\"LastName_new\", pm.variables.replaceIn('{{$randomLastName}}'));\r",
							"console.log(pm.collectionVariables.get('FirstName_new'));\r",
							"console.log(pm.collectionVariables.get('LastName_new'));"
						],
						"type": "text/javascript"
					}
				}
			],
			"request": {
				"method": "PUT",
				"header": [
					{
						"key": "Content-Type",
						"value": "application/json"
					}
				],
				"body": {
					"mode": "raw",
					"raw": "{\n    \"id\": {{id}},\n    \"username\": \"{{UserName}}\",\n    \"firstName\": \"{{FirstName_new}}\",\n    \"lastName\": \"{{LastName_new}}\",\n    \"email\": \"{{email}}\",\n    \"password\": \"{{password}}\",\n    \"phone\": \"{{phone}}\",\n    \"userStatus\": -6705011\n}",
					"options": {
						"raw": {
							"language": "json"
						}
					}
				},
				"url": {
					"raw": "{{baseUrl}}/user/{{UserName}}",
					"host": [
						"{{baseUrl}}"
					],
					"path": [
						"user",
						"{{UserName}}"
					]
				},
				"description": "This can only be done by the logged in user."
			},
			"response": [
				{
					"name": "Invalid user supplied",
					"originalRequest": {
						"method": "PUT",
						"header": [],
						"body": {
							"mode": "raw",
							"raw": "{\n    \"id\": 19426976,\n    \"username\": \"ad consequat Duis sed \",\n    \"firstName\": \"cillum\",\n    \"lastName\": \"est fugiat\",\n    \"email\": \"non sit\",\n    \"password\": \"dolor laboris Duis\",\n    \"phone\": \"nisi veniam qui elit in\",\n    \"userStatus\": -6705011\n}",
							"options": {
								"raw": {
									"language": "json"
								}
							}
						},
						"url": {
							"raw": "{{baseUrl}}/user/:username",
							"host": [
								"{{baseUrl}}"
							],
							"path": [
								"user",
								":username"
							],
							"variable": [
								{
									"key": "username",
									"value": "consequat consectetur nulla",
									"description": "(Required) name that need to be updated"
								}
							]
						}
					},
					"status": "Bad Request",
					"code": 400,
					"_postman_previewlanguage": "text",
					"header": [
						{
							"key": "Content-Type",
							"value": "text/plain"
						}
					],
					"cookie": [],
					"body": ""
				},
				{
					"name": "User not found",
					"originalRequest": {
						"method": "PUT",
						"header": [],
						"body": {
							"mode": "raw",
							"raw": "{\n    \"id\": 19426976,\n    \"username\": \"ad consequat Duis sed \",\n    \"firstName\": \"cillum\",\n    \"lastName\": \"est fugiat\",\n    \"email\": \"non sit\",\n    \"password\": \"dolor laboris Duis\",\n    \"phone\": \"nisi veniam qui elit in\",\n    \"userStatus\": -6705011\n}",
							"options": {
								"raw": {
									"language": "json"
								}
							}
						},
						"url": {
							"raw": "{{baseUrl}}/user/:username",
							"host": [
								"{{baseUrl}}"
							],
							"path": [
								"user",
								":username"
							],
							"variable": [
								{
									"key": "username",
									"value": "consequat consectetur nulla",
									"description": "(Required) name that need to be updated"
								}
							]
						}
					},
					"status": "Not Found",
					"code": 404,
					"_postman_previewlanguage": "text",
					"header": [
						{
							"key": "Content-Type",
							"value": "text/plain"
						}
					],
					"cookie": [],
					"body": ""
				}
			]
		},
		{
			"name": "Get edited user by user name",
			"event": [
				{
					"listen": "test",
					"script": {
						"exec": [
							"pm.test(\"Successful GET request-status code is 200\", function () {\r",
							"    pm.expect(pm.response.code).to.be.oneOf([200]);\r",
							"});\r",
							"\r",
							"pm.test(\"Status code name has string-'OK'\", function () {\r",
							"    pm.response.to.have.status(\"OK\");\r",
							"});\r",
							"\r",
							"pm.test(\"Response time is less than 200ms\", function () {\r",
							"    pm.expect(pm.response.responseTime).to.be.below(200);\r",
							"});\r",
							"\r",
							"if (responseCode.code === 200){\r",
							"var jsonData = JSON.parse(responseBody);\r",
							"\r",
							"    if (pm.collectionVariables.get('FirstName') !== null && pm.collectionVariables.get('FirstName_new') !== pm.collectionVariables.get('FirstName')){\r",
							"        pm.test(\"Body has changed First Name\", function () {\r",
							"            responseBody.has(pm.collectionVariables.get('FirstName_new'));\r",
							"        });\r",
							"    }\r",
							"    if (pm.collectionVariables.get('LastName_new') !== null && pm.collectionVariables.get('LastName_new') !== pm.collectionVariables.get('LastName')){\r",
							"        pm.test(\"Body has changed Last Name\", function () {\r",
							"            responseBody.has(pm.collectionVariables.get('LastName_new'));\r",
							"        });\r",
							"    }\r",
							"    console.log(responseBody);\r",
							"}"
						],
						"type": "text/javascript"
					}
				}
			],
			"request": {
				"method": "GET",
				"header": [],
				"url": {
					"raw": "{{baseUrl}}/user/{{UserName}}",
					"host": [
						"{{baseUrl}}"
					],
					"path": [
						"user",
						"{{UserName}}"
					]
				}
			},
			"response": [
				{
					"name": "successful operation",
					"originalRequest": {
						"method": "GET",
						"header": [],
						"url": {
							"raw": "{{baseUrl}}/user/:username",
							"host": [
								"{{baseUrl}}"
							],
							"path": [
								"user",
								":username"
							],
							"variable": [
								{
									"key": "username",
									"value": "Excepteur nostrud dolor cupidatat dolor",
									"description": "(Required) The name that needs to be fetched. Use user1 for testing. "
								}
							]
						}
					},
					"status": "OK",
					"code": 200,
					"_postman_previewlanguage": "json",
					"header": [
						{
							"key": "Content-Type",
							"value": "application/json"
						}
					],
					"cookie": [],
					"body": "{\n \"id\": -59783632,\n \"username\": \"irure elit mollit eu ut\",\n \"firstName\": \"ullamco do Lorem null\",\n \"lastName\": \"qui\",\n \"email\": \"enim sunt officia Duis\",\n \"password\": \"in\",\n \"phone\": \"quis dolor amet consectetur consequat\",\n \"userStatus\": -25555398\n}"
				},
				{
					"name": "Invalid username supplied",
					"originalRequest": {
						"method": "GET",
						"header": [],
						"url": {
							"raw": "{{baseUrl}}/user/:username",
							"host": [
								"{{baseUrl}}"
							],
							"path": [
								"user",
								":username"
							],
							"variable": [
								{
									"key": "username",
									"value": "Excepteur nostrud dolor cupidatat dolor",
									"description": "(Required) The name that needs to be fetched. Use user1 for testing. "
								}
							]
						}
					},
					"status": "Bad Request",
					"code": 400,
					"_postman_previewlanguage": "text",
					"header": [
						{
							"key": "Content-Type",
							"value": "text/plain"
						}
					],
					"cookie": [],
					"body": ""
				},
				{
					"name": "User not found",
					"originalRequest": {
						"method": "GET",
						"header": [],
						"url": {
							"raw": "{{baseUrl}}/user/:username",
							"host": [
								"{{baseUrl}}"
							],
							"path": [
								"user",
								":username"
							],
							"variable": [
								{
									"key": "username",
									"value": "Excepteur nostrud dolor cupidatat dolor",
									"description": "(Required) The name that needs to be fetched. Use user1 for testing. "
								}
							]
						}
					},
					"status": "Not Found",
					"code": 404,
					"_postman_previewlanguage": "text",
					"header": [
						{
							"key": "Content-Type",
							"value": "text/plain"
						}
					],
					"cookie": [],
					"body": ""
				}
			]
		},
		{
			"name": "Delete user",
			"event": [
				{
					"listen": "test",
					"script": {
						"exec": [
							"pm.test(\"Successful DELETE request-status code is 200\", function () {\r",
							"    pm.expect(pm.response.code).to.be.oneOf([200]);\r",
							"});\r",
							"pm.test(\"Status code name has string-'OK'\", function () {\r",
							"    pm.response.to.have.status(\"OK\");\r",
							"});\r",
							"pm.test(\"Response time is less than 200ms\", function () {\r",
							"    pm.expect(pm.response.responseTime).to.be.below(200);\r",
							"});"
						],
						"type": "text/javascript"
					}
				}
			],
			"request": {
				"method": "DELETE",
				"header": [],
				"url": {
					"raw": "{{baseUrl}}/user/{{UserName}}",
					"host": [
						"{{baseUrl}}"
					],
					"path": [
						"user",
						"{{UserName}}"
					]
				},
				"description": "This can only be done by the logged in user."
			},
			"response": [
				{
					"name": "Invalid username supplied",
					"originalRequest": {
						"method": "DELETE",
						"header": [],
						"url": {
							"raw": "{{baseUrl}}/user/:username",
							"host": [
								"{{baseUrl}}"
							],
							"path": [
								"user",
								":username"
							],
							"variable": [
								{
									"key": "username",
									"value": "consequat consectetur nulla",
									"description": "(Required) The name that needs to be deleted"
								}
							]
						}
					},
					"status": "Bad Request",
					"code": 400,
					"_postman_previewlanguage": "text",
					"header": [
						{
							"key": "Content-Type",
							"value": "text/plain"
						}
					],
					"cookie": [],
					"body": ""
				},
				{
					"name": "User not found",
					"originalRequest": {
						"method": "DELETE",
						"header": [],
						"url": {
							"raw": "{{baseUrl}}/user/:username",
							"host": [
								"{{baseUrl}}"
							],
							"path": [
								"user",
								":username"
							],
							"variable": [
								{
									"key": "username",
									"value": "consequat consectetur nulla",
									"description": "(Required) The name that needs to be deleted"
								}
							]
						}
					},
					"status": "Not Found",
					"code": 404,
					"_postman_previewlanguage": "text",
					"header": [
						{
							"key": "Content-Type",
							"value": "text/plain"
						}
					],
					"cookie": [],
					"body": ""
				}
			]
		},
		{
			"name": "Get deleted user by user name",
			"event": [
				{
					"listen": "test",
					"script": {
						"exec": [
							"pm.test(\"Status code is 404\", function () {\r",
							"    pm.response.to.have.status(404);\r",
							"});\r",
							"pm.test(\"Status code name has string-'Not Found'\", function () {\r",
							"    pm.response.to.have.status(\"Not Found\");\r",
							"});"
						],
						"type": "text/javascript"
					}
				},
				{
					"listen": "prerequest",
					"script": {
						"exec": [
							"setTimeout(function(){}, 20000);"
						],
						"type": "text/javascript"
					}
				}
			],
			"request": {
				"method": "GET",
				"header": [],
				"url": {
					"raw": "{{baseUrl}}/user/{{UserName}}",
					"host": [
						"{{baseUrl}}"
					],
					"path": [
						"user",
						"{{UserName}}"
					]
				}
			},
			"response": [
				{
					"name": "successful operation",
					"originalRequest": {
						"method": "GET",
						"header": [],
						"url": {
							"raw": "{{baseUrl}}/user/:username",
							"host": [
								"{{baseUrl}}"
							],
							"path": [
								"user",
								":username"
							],
							"variable": [
								{
									"key": "username",
									"value": "Excepteur nostrud dolor cupidatat dolor",
									"description": "(Required) The name that needs to be fetched. Use user1 for testing. "
								}
							]
						}
					},
					"status": "OK",
					"code": 200,
					"_postman_previewlanguage": "json",
					"header": [
						{
							"key": "Content-Type",
							"value": "application/json"
						}
					],
					"cookie": [],
					"body": "{\n \"id\": -59783632,\n \"username\": \"irure elit mollit eu ut\",\n \"firstName\": \"ullamco do Lorem null\",\n \"lastName\": \"qui\",\n \"email\": \"enim sunt officia Duis\",\n \"password\": \"in\",\n \"phone\": \"quis dolor amet consectetur consequat\",\n \"userStatus\": -25555398\n}"
				},
				{
					"name": "Invalid username supplied",
					"originalRequest": {
						"method": "GET",
						"header": [],
						"url": {
							"raw": "{{baseUrl}}/user/:username",
							"host": [
								"{{baseUrl}}"
							],
							"path": [
								"user",
								":username"
							],
							"variable": [
								{
									"key": "username",
									"value": "Excepteur nostrud dolor cupidatat dolor",
									"description": "(Required) The name that needs to be fetched. Use user1 for testing. "
								}
							]
						}
					},
					"status": "Bad Request",
					"code": 400,
					"_postman_previewlanguage": "text",
					"header": [
						{
							"key": "Content-Type",
							"value": "text/plain"
						}
					],
					"cookie": [],
					"body": ""
				},
				{
					"name": "User not found",
					"originalRequest": {
						"method": "GET",
						"header": [],
						"url": {
							"raw": "{{baseUrl}}/user/:username",
							"host": [
								"{{baseUrl}}"
							],
							"path": [
								"user",
								":username"
							],
							"variable": [
								{
									"key": "username",
									"value": "Excepteur nostrud dolor cupidatat dolor",
									"description": "(Required) The name that needs to be fetched. Use user1 for testing. "
								}
							]
						}
					},
					"status": "Not Found",
					"code": 404,
					"_postman_previewlanguage": "text",
					"header": [
						{
							"key": "Content-Type",
							"value": "text/plain"
						}
					],
					"cookie": [],
					"body": ""
				}
			]
		}
	],
	"event": [
		{
			"listen": "prerequest",
			"script": {
				"type": "text/javascript",
				"exec": [
					""
				]
			}
		},
		{
			"listen": "test",
			"script": {
				"type": "text/javascript",
				"exec": [
					""
				]
			}
		}
	],
	"variable": [
		{
			"key": "baseUrl",
			"value": "https://petstore.swagger.io/v2",
			"type": "string"
		},
		{
			"key": "id",
			"value": ""
		},
		{
			"key": "UserName",
			"value": ""
		},
		{
			"key": "FirstName",
			"value": ""
		},
		{
			"key": "LastName",
			"value": ""
		},
		{
			"key": "FirstName_new",
			"value": ""
		},
		{
			"key": "LastName_new",
			"value": ""
		},
		{
			"key": "email",
			"value": ""
		},
		{
			"key": "phone",
			"value": ""
		},
		{
			"key": "password",
			"value": ""
		}
	]
}